<?xml version="1.0" encoding="utf-8"?>
<!-- Generator: Adobe Illustrator 16.0.0, SVG Export Plug-In . SVG Version: 6.00 Build 0)  -->
<!DOCTYPE svg PUBLIC "-//W3C//DTD SVG 1.1//EN" "http://www.w3.org/Graphics/SVG/1.1/DTD/svg11.dtd">
<svg version="1.1" id="Layer_1" xmlns="http://www.w3.org/2000/svg" xmlns:xlink="http://www.w3.org/1999/xlink" x="0px" y="0px"
	 width="207.831px" height="17.458px" viewBox="0 0 207.831 17.458" enable-background="new 0 0 207.831 17.458"
	 xml:space="preserve">
<g>
	<g>
		<g>
			<polygon fill="#FFFFFF" stroke="#FFFFFF" stroke-width="0.2" stroke-miterlimit="10" points="39.645,5.357 39.645,17.151 
				40.772,17.151 40.792,6.093 			"/>
			<polygon fill="#FFFFFF" stroke="#FFFFFF" stroke-width="0.2" stroke-miterlimit="10" points="39.645,0.36 40.79,0.36 
				40.792,1.865 53.206,10.636 53.206,0.372 54.332,0.372 54.332,17.151 53.206,17.151 53.206,11.982 39.645,2.396 			"/>
		</g>
		<g>
			
				<rect x="84.738" y="3.675" fill="#FFFFFF" stroke="#FFFFFF" stroke-width="0.2" stroke-miterlimit="10" width="1.103" height="13.465"/>
			
				<rect x="78.819" y="0.36" fill="#FFFFFF" stroke="#FFFFFF" stroke-width="0.2" stroke-miterlimit="10" width="12.962" height="1.015"/>
		</g>
		<g>
			
				<rect x="157.144" y="0.36" fill="#FFFFFF" stroke="#FFFFFF" stroke-width="0.2" stroke-miterlimit="10" width="1.126" height="16.78"/>
			
				<rect x="160.572" y="16.125" fill="#FFFFFF" stroke="#FFFFFF" stroke-width="0.2" stroke-miterlimit="10" width="7.323" height="1.016"/>
		</g>
		<path fill="#FFFFFF" stroke="#FFFFFF" stroke-width="0.2" stroke-miterlimit="10" d="M205.168,2.667
			c-1.706-1.538-3.958-2.308-6.755-2.308h-2.489v1.015h2.51c2.458,0,4.436,0.674,5.928,2.021c1.496,1.347,2.243,3.129,2.243,5.354
			c0,2.208-0.75,3.987-2.255,5.344c-1.498,1.354-3.471,2.03-5.916,2.03h-4.812L193.611,0.36h-1.117v16.78h5.92
			c2.797,0,5.049-0.768,6.755-2.307c1.707-1.538,2.562-3.567,2.562-6.083C207.731,6.234,206.875,4.207,205.168,2.667z"/>
		<g>
			<path fill="#FFFFFF" stroke="#FFFFFF" stroke-width="0.2" stroke-miterlimit="10" d="M5.817,16.248
				c-1.201-0.211-2.204-0.761-3.014-1.658C1.75,13.421,1.226,11.865,1.226,9.92V0.36H0.1V9.92c0,2.252,0.627,4.062,1.889,5.43
				C3,16.456,4.281,17.105,5.817,17.321V16.248z"/>
			<path fill="#FFFFFF" stroke="#FFFFFF" stroke-width="0.2" stroke-miterlimit="10" d="M12.687,0.36V9.92
				c0,1.944-0.524,3.501-1.571,4.669c-0.801,0.897-1.801,1.447-3,1.658v1.073c1.533-0.216,2.814-0.865,3.829-1.971
				c1.258-1.367,1.889-3.178,1.889-5.43V0.36H12.687z"/>
		</g>
		<g>
			<path fill="#FFFFFF" stroke="#FFFFFF" stroke-width="0.2" stroke-miterlimit="10" d="M117.514,13.437
				c-2.29-2.904-2.188-7.129,0.416-9.911c1.434-1.533,3.463-2.413,5.564-2.413c1.551,0,3.037,0.473,4.299,1.337l0.697-0.744
				c-1.454-1.036-3.188-1.605-4.996-1.605c-2.381,0-4.676,0.997-6.304,2.734c-2.984,3.189-3.066,8.057-0.375,11.349L117.514,13.437z
				"/>
			<path fill="#FFFFFF" stroke="#FFFFFF" stroke-width="0.2" stroke-miterlimit="10" d="M132.118,8.443
				c-0.064-1.918-0.748-3.715-1.941-5.174l-0.703,0.752c1.002,1.268,1.58,2.811,1.633,4.454c0.07,2.034-0.66,3.973-2.049,5.459
				c-1.458,1.558-3.434,2.415-5.568,2.415c-1.548,0-3.034-0.474-4.295-1.339l-0.698,0.745c1.454,1.035,3.188,1.604,4.993,1.604
				c2.381,0,4.68-0.997,6.307-2.732C131.37,12.943,132.194,10.748,132.118,8.443z"/>
		</g>
	</g>
</g>
</svg>
